<svg width="40" height="40" viewBox="0 0 40 40" fill="none" xmlns="http://www.w3.org/2000/svg">
<path d="M29.5882 0H10.4118C4.66153 0 0 4.66153 0 10.4118V29.5882C0 35.3385 4.66153 40 10.4118 40H29.5882C35.3385 40 40 35.3385 40 29.5882V10.4118C40 4.66153 35.3385 0 29.5882 0Z" fill="url(#paint0_linear)"/>
<path fill-rule="evenodd" clip-rule="evenodd" d="M10.5671 7.36597H14.8251C16.5966 7.36597 18.0263 8.82673 18.0263 10.5983V14.9184C18.0263 16.7211 16.5966 18.1507 14.8251 18.1507H10.5671C8.79553 18.1507 7.36584 16.7211 7.36584 14.9184V10.5983C7.36584 8.82673 8.79553 7.36597 10.5671 7.36597V7.36597ZM10.5671 21.8493H14.8251C16.5966 21.8493 18.0263 23.2789 18.0263 25.0816V29.4017C18.0263 31.1733 16.5966 32.634 14.8251 32.634H10.5671C8.79553 32.634 7.36584 31.1733 7.36584 29.4017V25.0816C7.36584 23.2789 8.79553 21.8493 10.5671 21.8493V21.8493ZM29.4327 7.36597H25.1747C23.4031 7.36597 21.9735 8.82673 21.9735 10.5983V14.9184C21.9735 16.7211 23.4031 18.1507 25.1747 18.1507H29.4327C31.2042 18.1507 32.6339 16.7211 32.6339 14.9184V10.5983C32.6339 8.82673 31.2042 7.36597 29.4327 7.36597V7.36597ZM25.1747 21.8493H29.4327C31.2042 21.8493 32.6339 23.2789 32.6339 25.0816V29.4017C32.6339 31.1733 31.2042 32.634 29.4327 32.634H25.1747C23.4031 32.634 21.9735 31.1733 21.9735 29.4017V25.0816C21.9735 23.2789 23.4031 21.8493 25.1747 21.8493Z" fill="#9AA3C4"/>
<path fill-rule="evenodd" clip-rule="evenodd" d="M7.36592 29.4017C7.36592 31.1733 8.7956 32.634 10.5672 32.634H14.8251C16.2548 32.634 17.4359 31.7016 17.871 30.4273C13.7684 29.5571 10.0077 27.2261 8.11184 22.9681C7.61456 23.5276 7.33484 24.2735 7.33484 25.0816V29.4017H7.36592Z" fill="black" fill-opacity="0.15"/>
<path fill-rule="evenodd" clip-rule="evenodd" d="M22.2844 30.8625C22.8127 31.9192 23.9005 32.634 25.1437 32.634H29.4017C31.1733 32.634 32.6029 31.1733 32.6029 29.4017V27.5991C30.303 29.5571 26.3559 30.8003 22.2533 30.8625H22.2844Z" fill="black" fill-opacity="0.15"/>
<defs>
<linearGradient id="paint0_linear" x1="19.6426" y1="-21.4141" x2="19.6426" y2="26.1072" gradientUnits="userSpaceOnUse">
<stop stop-color="#D6DDFA"/>
<stop offset="1" stop-color="white"/>
</linearGradient>
</defs>
</svg>
