<svg width="40" height="40" viewBox="0 0 40 40" fill="none" xmlns="http://www.w3.org/2000/svg">
<g clip-path="url(#clip0)">
<path d="M29.5896 0H10.4104C4.66092 0 0 4.66092 0 10.4104V29.5896C0 35.3391 4.66092 40 10.4104 40H29.5896C35.3391 40 40 35.3391 40 29.5896V10.4104C40 4.66092 35.3391 0 29.5896 0Z" fill="url(#paint0_linear)"/>
<path fill-rule="evenodd" clip-rule="evenodd" d="M14.5149 7.35075H25.485C29.7761 7.35075 32.6492 10.3731 32.6492 14.8508V25.1866C32.6492 29.6642 29.7761 32.6493 25.485 32.6493H14.5149C10.2238 32.6493 7.35071 29.6269 7.35071 25.1866V14.8508C7.35071 10.3731 10.2238 7.35075 14.5149 7.35075V7.35075ZM24.5149 24.8134C24.8134 24.8134 25.1492 24.6642 25.3358 24.3284C25.597 23.8806 25.4477 23.3209 25 23.0224L20.485 20.3358V14.4776C20.485 13.9552 20.0746 13.5448 19.5522 13.5448C19.0298 13.5448 18.6194 13.9925 18.6194 14.4776V20.8582C18.6194 21.194 18.8059 21.4925 19.1044 21.6791L24.0671 24.6269C24.2164 24.7388 24.4029 24.7761 24.5522 24.7761L24.5149 24.8134Z" fill="#FA9E49"/>
<path fill-rule="evenodd" clip-rule="evenodd" d="M32.4253 27.1642C26.0074 31.9403 9.51489 31.903 7.35071 18.6194V25.1493C7.35071 29.6269 10.2238 32.612 14.5149 32.612H25.485C29.1044 32.612 31.7164 30.4851 32.4253 27.1269V27.1642Z" fill="black" fill-opacity="0.15"/>
</g>
<defs>
<linearGradient id="paint0_linear" x1="19.6642" y1="-21.4179" x2="19.6642" y2="26.1194" gradientUnits="userSpaceOnUse">
<stop stop-color="#FFEFE0"/>
<stop offset="1" stop-color="white"/>
</linearGradient>
<clipPath id="clip0">
<rect width="40" height="40" fill="white"/>
</clipPath>
</defs>
</svg>
