<svg width="40" height="40" viewBox="0 0 40 40" fill="none" xmlns="http://www.w3.org/2000/svg">
<g clip-path="url(#clip0)">
<path d="M29.5912 0H10.4088C4.66018 0 0 4.66018 0 10.4088V29.5912C0 35.3398 4.66018 40 10.4088 40H29.5912C35.3398 40 40 35.3398 40 29.5912V10.4088C40 4.66018 35.3398 0 29.5912 0Z" fill="url(#paint0_linear)"/>
<path fill-rule="evenodd" clip-rule="evenodd" d="M27.2958 15.4402H32.6417C32.6417 11.132 30.063 8.64777 25.7234 8.64777H14.3083C9.93726 8.64777 7.35864 11.1635 7.35864 15.4088V24.6541C7.35864 28.8993 9.93726 31.4151 14.3083 31.4151H25.7234C30.0945 31.4151 32.6417 28.8993 32.6417 24.6541V24.2453H27.2958C24.8115 24.2453 22.7989 22.2956 22.7989 19.8742C22.7989 17.4528 24.8115 15.5031 27.2958 15.5031V15.4717V15.4402ZM27.2958 17.327H31.6983C32.2329 17.327 32.6417 17.7358 32.6417 18.239V21.4465C32.6417 21.9497 32.2014 22.3585 31.6983 22.3585H27.3901C26.1322 22.3899 25.0316 21.5408 24.7486 20.3459C24.5913 19.5912 24.8115 18.8364 25.2832 18.2704C25.7863 17.6729 26.5096 17.3585 27.2643 17.327H27.2958ZM27.4844 20.6918H27.8932C28.4278 20.6918 28.8681 20.283 28.8681 19.7484C28.8681 19.2138 28.4278 18.805 27.8932 18.805H27.4844C27.2329 18.805 26.9813 18.8993 26.7926 19.088C26.6039 19.2767 26.5096 19.4968 26.5096 19.7484C26.5096 20.283 26.9498 20.6918 27.4844 20.6918ZM13.3335 15.4402H20.4719C21.0064 15.4402 21.4467 15.0314 21.4467 14.4968C21.4467 13.9622 21.0064 13.5534 20.4719 13.5534H13.3335C12.7989 13.5534 12.3586 13.9622 12.3586 14.4968C12.3586 15.0314 12.7989 15.4402 13.3335 15.4402Z" fill="#BA377C"/>
<path fill-rule="evenodd" clip-rule="evenodd" d="M32.5473 25.9434C31.5096 29.4968 7.35864 32.6415 7.35864 16.3522V25.0629C7.51588 29.0251 10.063 31.3836 14.2769 31.3836H25.692C29.5913 31.3836 32.0442 29.371 32.5473 25.9434Z" fill="black" fill-opacity="0.15"/>
</g>
<defs>
<linearGradient id="paint0_linear" x1="19.6541" y1="-21.4151" x2="19.6541" y2="26.1006" gradientUnits="userSpaceOnUse">
<stop stop-color="#FFD0E9"/>
<stop offset="1" stop-color="white"/>
</linearGradient>
<clipPath id="clip0">
<rect width="40" height="40" fill="white"/>
</clipPath>
</defs>
</svg>
