<svg width="40" height="40" viewBox="0 0 40 40" fill="none" xmlns="http://www.w3.org/2000/svg">
<g clip-path="url(#clip0)">
<path d="M29.6117 0H10.3884C4.65102 0 0 4.65102 0 10.3884V29.6117C0 35.349 4.65102 40 10.3884 40H29.6117C35.349 40 40 35.349 40 29.6117V10.3884C40 4.65102 35.349 0 29.6117 0Z" fill="url(#paint0_linear)"/>
<path fill-rule="evenodd" clip-rule="evenodd" d="M13.1715 21.5858C13.1715 21.6181 13.1715 21.6181 13.1392 21.6505C12.3625 22.0388 9.41749 23.6893 9.77348 27.1845C9.77348 27.3463 9.67639 27.4757 9.51458 27.4434C8.77025 27.3463 6.92558 26.9256 6.34306 25.6634C6.01944 24.9838 6.01944 24.2071 6.34306 23.5599C6.73141 22.7508 7.63756 22.2006 9.02914 21.9094C9.67639 21.7476 11.4563 21.521 13.1392 21.5534C13.1715 21.5534 13.1715 21.5858 13.1715 21.5858V21.5858Z" fill="#4EACDC"/>
<path fill-rule="evenodd" clip-rule="evenodd" d="M12.9774 19.8058C13.1716 19.8058 13.3981 19.7735 13.5923 19.7411C13.7217 19.7087 13.8188 19.5469 13.7217 19.4175C12.945 18.2524 12.4919 16.8285 12.4919 15.3074C12.4919 13.7217 12.9774 12.2654 13.8512 11.0356C13.8835 11.0032 13.8835 10.9385 13.8835 10.9062C13.8512 10.8738 13.8188 10.8414 13.7864 10.8414C13.4952 10.7767 13.2039 10.7443 12.8803 10.7443C10.0324 10.7443 7.79939 13.4304 8.54373 16.4401C9.06153 18.479 10.9386 19.8058 13.0097 19.7411L12.9774 19.8058Z" fill="#4EACDC"/>
<path fill-rule="evenodd" clip-rule="evenodd" d="M30.9708 21.9094C32.3623 22.1683 33.2685 22.7508 33.6568 23.5599C33.9805 24.2395 33.9805 25.0162 33.6568 25.6634C33.0743 26.9256 31.1973 27.3463 30.4853 27.4434C30.3235 27.4757 30.2264 27.3463 30.2264 27.1845C30.6148 23.6893 27.6374 22.0388 26.8607 21.6505C26.8284 21.6181 26.8284 21.6181 26.8284 21.5858C26.8284 21.5858 26.8284 21.5534 26.8607 21.5534C28.5112 21.521 30.2912 21.7476 30.9708 21.9094V21.9094Z" fill="#4EACDC"/>
<path fill-rule="evenodd" clip-rule="evenodd" d="M27.5404 15.3398C27.5404 16.8608 27.0873 18.2524 26.3106 19.4498C26.2135 19.5793 26.3106 19.7411 26.44 19.7735C26.6342 19.8058 26.8284 19.8382 27.0549 19.8382C29.1261 19.9029 31.0031 18.5437 31.5209 16.5372C32.2976 13.5275 30.0323 10.8414 27.1844 10.8414C26.8607 10.8414 26.5695 10.8738 26.2782 10.9385C26.2459 10.9385 26.1811 10.9709 26.1811 11.0032C26.1488 11.0356 26.1811 11.1003 26.2135 11.1327C27.0549 12.3301 27.5727 13.8188 27.5727 15.4045L27.5404 15.3398Z" fill="#4EACDC"/>
<path fill-rule="evenodd" clip-rule="evenodd" d="M19.9353 30.1295C15.5987 30.1295 11.9094 29.4499 11.9094 26.6991C11.9094 23.9483 15.5987 23.2363 19.9353 23.2363C24.2719 23.2363 27.9612 23.9159 27.9612 26.6667C27.9612 29.4175 24.2719 30.1295 19.9353 30.1295Z" fill="#4EACDC"/>
<path fill-rule="evenodd" clip-rule="evenodd" d="M25.275 15.2427C25.275 18.2201 22.9126 20.5826 19.9676 20.5826C17.0226 20.5826 14.6602 18.1877 14.6602 15.2427C14.6602 12.2654 17.0226 9.90294 19.9676 9.90294C22.9126 9.90294 25.275 12.2978 25.275 15.2427V15.2427Z" fill="#4EACDC"/>
<path fill-rule="evenodd" clip-rule="evenodd" d="M6.34306 23.5599C6.01944 24.2395 6.01944 25.0162 6.34306 25.6634C6.92558 26.9256 8.80261 27.3463 9.51458 27.4434C9.67639 27.4757 9.77348 27.3463 9.77348 27.1845C9.57931 25.2751 10.356 23.9159 11.2298 23.0097C10.8414 22.6214 10.4855 22.1683 10.1618 21.7152C9.67639 21.78 9.25568 21.8447 9.02914 21.9094C7.63756 22.2007 6.73141 22.7508 6.34306 23.5599V23.5599Z" fill="black" fill-opacity="0.15"/>
<path fill-rule="evenodd" clip-rule="evenodd" d="M13.0097 24.5631C12.2978 25.0809 11.9094 25.7605 11.9094 26.6667C11.9094 29.4175 15.5987 30.0971 19.9353 30.0971C24.2072 30.0971 27.8318 29.4175 27.9612 26.7961C23.2039 27.9935 17.2169 27.6052 12.9774 24.5631H13.0097Z" fill="black" fill-opacity="0.15"/>
<path fill-rule="evenodd" clip-rule="evenodd" d="M30.2267 26.0842C30.259 26.4402 30.259 26.7961 30.2267 27.1845C30.2267 27.3463 30.3238 27.4757 30.4856 27.4434C31.2299 27.3463 33.0746 26.9256 33.6571 25.6634C33.916 25.1133 33.9807 24.466 33.7866 23.8835C32.8804 24.7573 31.6506 25.4693 30.2267 26.0518V26.0842Z" fill="black" fill-opacity="0.15"/>
</g>
<defs>
<linearGradient id="paint0_linear" x1="19.644" y1="-21.3916" x2="19.644" y2="26.1165" gradientUnits="userSpaceOnUse">
<stop stop-color="#D0EFFF"/>
<stop offset="1" stop-color="white"/>
</linearGradient>
<clipPath id="clip0">
<rect width="40" height="40" fill="white"/>
</clipPath>
</defs>
</svg>
